{
  "project_info": {
    "project_number": "190539913127",
    "firebase_url": "https://lotusemployee-4f532.firebaseio.com",
    "project_id": "lotusemployee-4f532",
    "storage_bucket": "lotusemployee-4f532.appspot.com"
  },
  "client": [
    {
      "client_info": {
        "mobilesdk_app_id": "1:190539913127:android:edaea38f6ed2ded1",
        "android_client_info": {
          "package_name": "com.lotusempapp"
        }
      },
      "oauth_client": [
        {
          "client_id": "190539913127-s1c6a741fvq1uphsn4ukc6v81lj77hi6.apps.googleusercontent.com",
          "client_type": 3
        }
      ],
      "api_key": [
        {
          "current_key": "AIzaSyA8KQb3UcKMVcbfoMjvj9RSUsD7PnPutts"
        }
      ],
      "services": {
        "analytics_service": {
          "status": 1
        },
        "appinvite_service": {
          "status": 1,
          "other_platform_oauth_client": []
        },
        "ads_service": {
          "status": 2
        }
      }
    }
  ],
  "configuration_version": "1"
}